Place,Name,Sex,BirthDate,Age,State,Equipment,Division,Tested,BodyweightKg,WeightClassKg,Squat1Kg,Squat2Kg,Squat3Kg,Squat4Kg,Best3SquatKg,Bench1Kg,Bench2Kg,Bench3Kg,Best3BenchKg,Deadlift1Kg,Deadlift2Kg,Deadlift3Kg,Deadlift4Kg,Best3DeadliftKg,TotalKg,Event
1,Christina Ullman,F,1971-05-01,49,OH,Raw,Masters 45-49,Yes,80.97,82.5,124.74,-131.54,131.54,,131.54,65.77,70.31,-74.84,70.31,142.88,149.69,154.22,-158.76,154.22,356.07,SBD
1,Christina Ullman,F,1971-05-01,49,OH,Raw,Open,Yes,80.97,82.5,124.74,-131.54,131.54,,131.54,65.77,70.31,-74.84,70.31,142.88,149.69,154.22,-158.76,154.22,356.07,SBD
1,Janelle Lentz,F,1986-12-16,33,OH,Wraps,Submasters 33-39,Yes,104.55,100+,-136.08,147.42,-158.76,,147.42,61.23,68.04,-74.84,68.04,113.4,124.74,-142.88,,124.74,340.19,SBD
1,Christina Ullman,F,1971-05-01,49,OH,Raw,Masters 45-49,Yes,80.97,82.5,,,,,,65.77,70.31,-74.84,70.31,142.88,149.69,154.22,-158.76,154.22,224.53,BD
1,Christina Ullman,F,1971-05-01,49,OH,Raw,Open,Yes,80.97,82.5,,,,,,65.77,70.31,-74.84,70.31,142.88,149.69,154.22,-158.76,154.22,224.53,BD
1,Christina Ullman,F,1971-05-01,49,OH,Raw,Masters 45-49,Yes,80.97,82.5,,,,,,65.77,70.31,-74.84,70.31,,,,,,70.31,B
1,Christina Ullman,F,1971-05-01,49,OH,Raw,Open,Yes,80.97,82.5,,,,,,65.77,70.31,-74.84,70.31,,,,,,70.31,B
1,Christina Ullman,F,1971-05-01,49,OH,Raw,Masters 45-49,Yes,80.97,82.5,,,,,,,,,,142.88,149.69,154.22,-158.76,154.22,154.22,D
1,Christina Ullman,F,1971-05-01,49,OH,Raw,Open,Yes,80.97,82.5,,,,,,,,,,142.88,149.69,154.22,-158.76,154.22,154.22,D
1,Anthony Lee #1,M,1999-09-11,21,WV,Wraps,Juniors 20-23,Yes,59.08,60,-151.95,163.29,-183.7,,163.29,95.25,104.33,-108.86,104.33,183.7,199.58,208.65,,208.65,476.27,SBD
1,Devon Moss,M,1999-09-25,21,OH,Wraps,Juniors 20-23,Yes,65.32,67.5,188.24,210.92,219.99,,219.99,124.74,-133.81,133.81,133.81,183.7,204.12,210.92,219.99,210.92,564.72,SBD
1,Roger Mayne,M,2000-05-03,20,WV,Wraps,Juniors 20-23,Yes,87.2,90,215.46,226.8,-244.94,,226.8,136.08,147.42,-151.95,147.42,251.74,-274.42,274.42,,274.42,648.64,SBD
1,Clayton Workman,M,1975-11-27,44,WV,Wraps,Masters 40-44,,115.21,125,260.82,274.42,-294.84,,274.42,165.56,-172.37,-172.37,165.56,272.16,285.76,-294.84,,285.76,725.75,SBD
1,Robert Clark,M,1960-07-02,60,OH,Wraps,Masters 60-64,Yes,123.04,125,165.56,183.7,192.78,,192.78,102.06,111.13,-117.93,111.13,142.88,165.56,-183.7,,165.56,469.47,SBD
1,Clayton Workman,M,1975-11-27,44,WV,Wraps,Open,,115.21,125,260.82,274.42,-294.84,,274.42,165.56,-172.37,-172.37,165.56,272.16,285.76,-294.84,,285.76,725.75,SBD
2,James Clark,M,1991-11-27,28,WV,Wraps,Open,,120.77,125,192.78,213.19,233.6,-247.21,233.6,142.88,-156.49,-156.49,142.88,272.16,292.57,301.64,,301.64,678.12,SBD
1,Ben Greene,M,1995-08-08,25,OH,Wraps,Open,Yes,64.86,67.5,-99.79,104.33,108.86,,108.86,81.65,86.18,-90.72,86.18,136.08,140.61,145.15,,145.15,340.19,SBD
1,Roger Mayne,M,2000-05-03,20,WV,Wraps,Open,Yes,87.2,90,215.46,226.8,-244.94,,226.8,136.08,147.42,-151.95,147.42,251.74,-274.42,274.42,,274.42,648.64,SBD
1,Jared Isner,M,1996-08-27,24,OH,Wraps,Open,Yes,93.89,100,249.48,272.16,-283.5,,272.16,158.76,-165.56,-165.56,158.76,249.48,-272.16,-272.16,,249.48,680.39,SBD
1,Anthony Canter,M,1987-04-27,33,OH,Wraps,Submasters 33-39,Yes,95.14,100,197.31,-210.92,210.92,,210.92,142.88,-149.69,-149.69,142.88,215.46,-229.06,-229.06,,215.46,569.26,SBD
2,Jeremy DeMoss,M,1984-11-16,35,WV,Wraps,Submasters 33-39,Yes,99.68,100,74.84,-113.4,136.08,,136.08,79.38,-111.13,-138.35,79.38,79.38,113.4,163.29,170.1,163.29,378.75,SBD
DQ,Garret Miller,M,2005-08-30,15,OH,Wraps,Teen 13-15,Yes,72.01,75,142.88,156.49,,,156.49,70.31,79.38,-83.91,79.38,,,,,,,SBD
DQ,Mark Jarrell,M,1978-02-25,42,WV,Unlimited,Open,Yes,185.52,140+,-347,,,,,,,,,265.35,-288.03,,,265.35,,SBD
1,Cody Byers,M,1998-05-17,22,WV,Raw,Juniors 20-23,Yes,80.06,82.5,,,,,,-108.86,108.86,-117.93,108.86,183.7,199.58,-208.65,,199.58,308.44,BD
1,Kaiten Rivera,M,2008-12-31,11,WV,Raw,Youth 10-11,Yes,35.38,39,,,,,,34.02,36.29,-43.54,36.29,54.43,58.97,63.5,70.31,63.5,99.79,BD
